<?xml version="1.0" encoding="utf-8"?>
<!-- Generator: Adobe Illustrator 21.1.0, SVG Export Plug-In . SVG Version: 6.00 Build 0)  -->
<svg version="1.2" baseProfile="tiny" xmlns="http://www.w3.org/2000/svg" xmlns:xlink="http://www.w3.org/1999/xlink" x="0px"
	 y="0px" width="1700.79px" height="850.39px" viewBox="0 0 1700.79 850.39" xml:space="preserve">
<g id="Layer_1">
	<circle fill="none" stroke="#FF0000" stroke-width="0.2835" stroke-miterlimit="10" cx="78.277" cy="476.035" r="0"/>
	<polyline fill="none" stroke="#FF0000" stroke-width="0.2835" stroke-miterlimit="10" points="1124.624,235.413 1124.624,348.799 
		207.757,348.799 207.324,348.801 171.969,384.157 136.613,348.801 81.958,348.785 	"/>
	
		<line fill="none" stroke="#FF0000" stroke-width="0.2835" stroke-miterlimit="10" x1="15.08" y1="348.799" x2="15.08" y2="235.413"/>
	
		<line fill="none" stroke="#FF0000" stroke-width="0.2835" stroke-miterlimit="10" x1="919.315" y1="462.187" x2="919.315" y2="348.801"/>
	<polyline fill="none" stroke="#FF0000" stroke-width="0.2835" stroke-miterlimit="10" points="57.591,462.187 68.613,462.187 
		81.958,462.187 	"/>
	<path fill="none" stroke="#FF0000" stroke-width="0.2835" stroke-miterlimit="10" d="M57.589,575.571v0.002h79.471l35.355,35.355
		l35.355-35.355h916.867V462.187H207.324l-35.355,35.355l-35.355-35.355H83.094h-1.136H68.613H57.591v10.571
		c4.476,2.951,7.435,8.017,7.435,13.779c0,9.113-7.387,16.5-16.5,16.5c-9.113,0-16.5-7.387-16.5-16.5
		c0-5.763,2.958-10.829,7.435-13.779v-10.571H15.094v113.386h24.365v-0.002"/>
	<path fill="none" stroke="#FF0000" stroke-width="0.2835" stroke-miterlimit="10" d="M81.958,348.785"/>
	<path fill="none" stroke="#FF0000" stroke-width="0.2835" stroke-miterlimit="10" d="M136.613,348.801"/>
	
		<line fill="none" stroke="#FF0000" stroke-width="0.2835" stroke-miterlimit="10" x1="81.958" y1="462.187" x2="81.958" y2="348.785"/>
	<polygon fill="none" stroke="#FF0000" stroke-width="0.2835" stroke-miterlimit="10" points="139.31,122.029 103.955,157.385 
		68.599,122.029 15.08,122.029 15.08,235.415 68.599,235.415 103.955,270.771 139.31,235.415 851.301,235.415 851.301,122.029 	"/>
	<path fill="none" stroke="#FF0000" stroke-width="0.2835" stroke-miterlimit="10" d="M81.958,348.785H57.591v10.571
		c4.476,2.951,7.435,8.017,7.435,13.779c0,9.113-7.387,16.5-16.5,16.5c-9.113,0-16.5-7.387-16.5-16.5
		c0-5.763,2.958-10.829,7.435-13.779v-10.571H15.094v113.403h24.367"/>
	<path fill="none" stroke="#FF0000" stroke-width="0.2835" stroke-miterlimit="10" d="M39.461,348.785"/>
	<g>
		<path fill="none" stroke="#FF0000" stroke-width="0.2835" stroke-miterlimit="10" d="M977,749.132h10.571
			c2.951,4.476,8.017,7.435,13.779,7.435c9.113,0,16.5-7.387,16.5-16.5c0-9.113-7.387-16.5-16.5-16.5
			c-5.763,0-10.828,2.959-13.779,7.435H977v-24.367H863.597v24.367h10.571c2.951-4.476,8.017-7.435,13.779-7.435
			c9.113,0,16.5,7.387,16.5,16.5c0,9.113-7.387,16.5-16.5,16.5c-5.763,0-10.829-2.958-13.779-7.435h-10.571v24.367H977V749.132"/>
	</g>
	
		<line fill="none" stroke="#FF0000" stroke-width="0.2835" stroke-miterlimit="10" x1="1124.624" y1="235.413" x2="851.301" y2="235.413"/>
	<polygon fill="none" stroke="#FF0000" stroke-width="0.2835" stroke-miterlimit="10" points="1692.386,131.315 1657.031,95.959 
		1692.386,60.604 1692.386,7.085 1579,7.085 1579,60.604 1543.645,95.959 1579,131.315 1579,843.305 1692.386,843.305 	"/>
	<g>
		<path fill="none" stroke="#FF0000" stroke-width="0.2835" stroke-miterlimit="10" d="M1260.336,814.497h10.571
			c2.951,4.476,8.017,7.435,13.779,7.435c9.113,0,16.5-7.387,16.5-16.5c0-9.113-7.387-16.5-16.5-16.5
			c-5.763,0-10.828,2.959-13.779,7.435h-10.571V772h-113.402v24.367h10.571c2.951-4.476,8.017-7.435,13.779-7.435
			c9.113,0,16.5,7.387,16.5,16.5c0,9.113-7.387,16.5-16.5,16.5c-5.762,0-10.828-2.958-13.779-7.435h-10.571v24.367h113.402V814.497"
			/>
	</g>
	<g>
		<path fill="none" stroke="#FF0000" stroke-width="0.2835" stroke-miterlimit="10" d="M1260.336,731.456h10.571
			c2.951,4.476,8.017,7.435,13.779,7.435c9.113,0,16.5-7.387,16.5-16.5c0-9.113-7.387-16.5-16.5-16.5
			c-5.763,0-10.828,2.959-13.779,7.435h-10.571v-24.367h-113.402v24.367h10.571c2.951-4.476,8.017-7.435,13.779-7.435
			c9.113,0,16.5,7.387,16.5,16.5c0,9.113-7.387,16.5-16.5,16.5c-5.762,0-10.828-2.958-13.779-7.435h-10.571v24.367h113.402V731.456"
			/>
	</g>
	<g>
		<path fill="none" stroke="#FF0000" stroke-width="0.2835" stroke-miterlimit="10" d="M1260.336,648.414h10.571
			c2.951,4.476,8.017,7.435,13.779,7.435c9.113,0,16.5-7.387,16.5-16.5c0-9.113-7.387-16.5-16.5-16.5
			c-5.763,0-10.828,2.959-13.779,7.435h-10.571v-24.367h-113.402v24.367h10.571c2.951-4.476,8.017-7.435,13.779-7.435
			c9.113,0,16.5,7.387,16.5,16.5c0,9.113-7.387,16.5-16.5,16.5c-5.762,0-10.828-2.958-13.779-7.435h-10.571v24.367h113.402V648.414"
			/>
	</g>
	<g>
		<path fill="none" stroke="#FF0000" stroke-width="0.2835" stroke-miterlimit="10" d="M1260.336,565.373h10.571
			c2.951,4.476,8.017,7.435,13.779,7.435c9.113,0,16.5-7.387,16.5-16.5c0-9.113-7.387-16.5-16.5-16.5
			c-5.763,0-10.828,2.959-13.779,7.435h-10.571v-24.367h-113.402v24.367h10.571c2.951-4.476,8.017-7.435,13.779-7.435
			c9.113,0,16.5,7.387,16.5,16.5c0,9.113-7.387,16.5-16.5,16.5c-5.762,0-10.828-2.958-13.779-7.435h-10.571v24.367h113.402V565.373"
			/>
	</g>
	<g>
		<path fill="none" stroke="#FF0000" stroke-width="0.2835" stroke-miterlimit="10" d="M1260.336,482.332h10.571
			c2.951,4.476,8.017,7.435,13.779,7.435c9.113,0,16.5-7.387,16.5-16.5c0-9.113-7.387-16.5-16.5-16.5
			c-5.763,0-10.828,2.959-13.779,7.435h-10.571v-24.367h-113.402v24.367h10.571c2.951-4.476,8.017-7.435,13.779-7.435
			c9.113,0,16.5,7.387,16.5,16.5c0,9.113-7.387,16.5-16.5,16.5c-5.762,0-10.828-2.958-13.779-7.435h-10.571v24.367h113.402V482.332"
			/>
	</g>
	<g>
		<path fill="none" stroke="#FF0000" stroke-width="0.2835" stroke-miterlimit="10" d="M1260.336,399.291h10.571
			c2.951,4.476,8.017,7.435,13.779,7.435c9.113,0,16.5-7.387,16.5-16.5c0-9.113-7.387-16.5-16.5-16.5
			c-5.763,0-10.828,2.959-13.779,7.435h-10.571v-24.367h-113.402v24.367h10.571c2.951-4.476,8.017-7.435,13.779-7.435
			c9.113,0,16.5,7.387,16.5,16.5c0,9.113-7.387,16.5-16.5,16.5c-5.762,0-10.828-2.958-13.779-7.435h-10.571v24.367h113.402V399.291"
			/>
	</g>
	<g>
		<path fill="none" stroke="#FF0000" stroke-width="0.2835" stroke-miterlimit="10" d="M1260.336,316.249h10.571
			c2.951,4.476,8.017,7.435,13.779,7.435c9.113,0,16.5-7.387,16.5-16.5c0-9.113-7.387-16.5-16.5-16.5
			c-5.763,0-10.828,2.959-13.779,7.435h-10.571v-24.367h-113.402v24.367h10.571c2.951-4.476,8.017-7.435,13.779-7.435
			c9.113,0,16.5,7.387,16.5,16.5c0,9.113-7.387,16.5-16.5,16.5c-5.762,0-10.828-2.958-13.779-7.435h-10.571v24.367h113.402V316.249"
			/>
	</g>
	<g>
		<path fill="none" stroke="#FF0000" stroke-width="0.2835" stroke-miterlimit="10" d="M1260.336,233.208h10.571
			c2.951,4.476,8.017,7.435,13.779,7.435c9.113,0,16.5-7.387,16.5-16.5c0-9.113-7.387-16.5-16.5-16.5
			c-5.763,0-10.828,2.959-13.779,7.435h-10.571v-24.367h-113.402v24.367h10.571c2.951-4.476,8.017-7.435,13.779-7.435
			c9.113,0,16.5,7.387,16.5,16.5c0,9.113-7.387,16.5-16.5,16.5c-5.762,0-10.828-2.958-13.779-7.435h-10.571v24.367h113.402V233.208"
			/>
	</g>
	<g>
		<path fill="none" stroke="#FF0000" stroke-width="0.2835" stroke-miterlimit="10" d="M1260.336,150.167h10.571
			c2.951,4.476,8.017,7.435,13.779,7.435c9.113,0,16.5-7.387,16.5-16.5c0-9.113-7.387-16.5-16.5-16.5
			c-5.763,0-10.828,2.959-13.779,7.435h-10.571V107.67h-113.402v24.367h10.571c2.951-4.476,8.017-7.435,13.779-7.435
			c9.113,0,16.5,7.387,16.5,16.5c0,9.113-7.387,16.5-16.5,16.5c-5.762,0-10.828-2.958-13.779-7.435h-10.571v24.367h113.402V150.167"
			/>
	</g>
</g>
<g id="Layer_2">
</g>
<g id="Layer_3">
	<polyline fill="none" stroke="#FF0000" stroke-width="0.2835" stroke-miterlimit="10" points="39.459,688.957 39.459,688.959 
		68.613,688.959 103.969,724.314 139.324,688.959 207.771,688.959 	"/>
	<polyline fill="none" stroke="#FF0000" stroke-width="0.2835" stroke-miterlimit="10" points="207.771,688.959 865.488,688.959 
		1124.638,688.959 1124.638,575.573 	"/>
	<path fill="none" stroke="#FF0000" stroke-width="0.2835" stroke-miterlimit="10" d="M57.589,575.573v10.569
		c4.476,2.951,7.435,8.017,7.435,13.779c0,9.113-7.387,16.5-16.5,16.5c-9.113,0-16.5-7.387-16.5-16.5
		c0-5.763,2.958-10.829,7.435-13.779v-10.569H15.094v113.386h24.365v-0.002"/>
	<g>
		<polyline fill="none" stroke="#FF0000" stroke-width="0.2835" stroke-miterlimit="10" points="851.301,122.029 865.474,122.029 
			1124.624,122.029 1124.624,8.644 		"/>
		<path fill="none" stroke="#FF0000" stroke-width="0.2835" stroke-miterlimit="10" d="M15.08,122.029"/>
		
			<line fill="none" stroke="#FF0000" stroke-width="0.2835" stroke-miterlimit="10" x1="15.08" y1="8.644" x2="15.08" y2="122.029"/>
	</g>
	
		<line fill="none" stroke="#FF0000" stroke-width="0.2835" stroke-miterlimit="10" x1="15.08" y1="8.644" x2="1124.624" y2="8.644"/>
</g>
<g id="Layer_4">
	<polyline fill="none" stroke="#FF0000" stroke-width="0.2835" stroke-miterlimit="10" points="15.094,688.959 15.094,802.345 
		68.613,802.345 139.324,802.345 851.315,802.345 851.315,688.959 	"/>
	<polyline fill="none" stroke="#FF0000" stroke-width="0.2835" stroke-miterlimit="10" points="1579.011,7.085 1465.625,7.085 
		1465.625,60.604 1430.27,95.959 1465.625,131.315 1465.625,843.305 1579.011,843.305 	"/>
	<polyline fill="none" stroke="#FF0000" stroke-width="0.2835" stroke-miterlimit="10" points="1465.625,7.085 1352.239,7.085 
		1352.239,60.604 1316.884,95.959 1352.239,131.315 1352.239,843.305 1465.625,843.305 	"/>
	
		<rect x="919.315" y="158" fill="none" stroke="#FF0000" stroke-width="0.2835" stroke-miterlimit="10" width="28.346" height="28.346"/>
	<text transform="matrix(1 0 0 1 956.5 174.5334)" font-family="'MyriadPro-Regular'" font-size="12px">10mm x 10mm</text>
</g>
</svg>
